\relax 
\providecommand\HyperFirstAtBeginDocument{\AtBeginDocument}
\HyperFirstAtBeginDocument{\ifx\hyper@anchor\@undefined
\global\let\oldcontentsline\contentsline
\gdef\contentsline#1#2#3#4{\oldcontentsline{#1}{#2}{#3}}
\global\let\oldnewlabel\newlabel
\gdef\newlabel#1#2{\newlabelxx{#1}#2}
\gdef\newlabelxx#1#2#3#4#5#6{\oldnewlabel{#1}{{#2}{#3}}}
\AtEndDocument{\ifx\hyper@anchor\@undefined
\let\contentsline\oldcontentsline
\let\newlabel\oldnewlabel
\fi}
\fi}
\global\let\hyper@last\relax 
\gdef\HyperFirstAtBeginDocument#1{#1}
\providecommand*\HyPL@Entry[1]{}
\bibstyle{biblatex}
\bibdata{main-blx,nkthesis}
\citation{biblatex-control}
\HyPL@Entry{0<</S/R>>}
\@writefile{toc}{\boolfalse {citerequest}\boolfalse {citetracker}\boolfalse {pagetracker}\boolfalse {backtracker}\relax }
\@writefile{lof}{\boolfalse {citerequest}\boolfalse {citetracker}\boolfalse {pagetracker}\boolfalse {backtracker}\relax }
\@writefile{lot}{\boolfalse {citerequest}\boolfalse {citetracker}\boolfalse {pagetracker}\boolfalse {backtracker}\relax }
\@input{abstract.aux}
\HyPL@Entry{3<</S/R>>}
\@input{manual.aux}
\citation{abraham2012manifolds}
\abx@aux@category{cited}{abraham2012manifolds}
\citation{Kolda2009}
\abx@aux@category{cited}{Kolda2009}
\citation{ChangQi2013}
\abx@aux@category{cited}{ChangQi2013}
\citation{chatelin2012eigenvalues}
\abx@aux@category{cited}{chatelin2012eigenvalues}
\citation{Qi2005}
\citation{Lim20051}
\abx@aux@category{cited}{Qi2005}
\abx@aux@category{cited}{Lim20051}
\citation{Person2012}
\citation{HuQi2012}
\citation{Lim2008}
\abx@aux@category{cited}{Person2012}
\abx@aux@category{cited}{HuQi2012}
\abx@aux@category{cited}{Lim2008}
\citation{NgQi2009}
\abx@aux@category{cited}{NgQi2009}
\citation{De2000}
\abx@aux@category{cited}{De2000}
\citation{Uschmajew2012}
\abx@aux@category{cited}{Uschmajew2012}
\citation{barmpoutis2007symmetric}
\abx@aux@category{cited}{barmpoutis2007symmetric}
\HyPL@Entry{7<</S/D>>}
\citation{Qi2005}
\abx@aux@category{cited}{Qi2005}
\citation{Lim20051}
\abx@aux@category{cited}{Lim20051}
\citation{Qi2005}
\abx@aux@category{cited}{Qi2005}
\citation{Chang2008}
\abx@aux@category{cited}{Chang2008}
\citation{Chang2008}
\abx@aux@category{cited}{Chang2008}
\citation{YangYang2010}
\citation{YangYang2011}
\abx@aux@category{cited}{YangYang2010}
\abx@aux@category{cited}{YangYang2011}
\citation{ChangQi2010}
\abx@aux@category{cited}{ChangQi2010}
\citation{YangYang2011a}
\abx@aux@category{cited}{YangYang2011a}
\citation{bulo2009new}
\abx@aux@category{cited}{bulo2009new}
\citation{ng2009finding}
\abx@aux@category{cited}{ng2009finding}
\citation{pearson2010essentially}
\abx@aux@category{cited}{pearson2010essentially}
\citation{liu2010always}
\abx@aux@category{cited}{liu2010always}
\citation{chang2011primitivity}
\abx@aux@category{cited}{chang2011primitivity}
\citation{Friedland2012}
\abx@aux@category{cited}{Friedland2012}
\citation{gaubert2004perron}
\abx@aux@category{cited}{gaubert2004perron}
\citation{ZhangQi}
\abx@aux@category{cited}{ZhangQi}
\citation{liu2010always}
\abx@aux@category{cited}{liu2010always}
\citation{zhou2013efficient}
\abx@aux@category{cited}{zhou2013efficient}
\citation{HuHuang2013}
\abx@aux@category{cited}{HuHuang2013}
\citation{ChenQi2013}
\abx@aux@category{cited}{ChenQi2013}
\citation{ZhangQi}
\abx@aux@category{cited}{ZhangQi}
\citation{ChenQi2013}
\abx@aux@category{cited}{ChenQi2013}
\citation{HuHuang2013}
\abx@aux@category{cited}{HuHuang2013}
\citation{ChenQi2013}
\abx@aux@category{cited}{ChenQi2013}
\citation{HuHuang2013}
\abx@aux@category{cited}{HuHuang2013}
\citation{Qi2005}
\abx@aux@category{cited}{Qi2005}
\citation{Lim20051}
\abx@aux@category{cited}{Lim20051}
\citation{YangYang2010}
\abx@aux@category{cited}{YangYang2010}
\citation{berman1979nonnegative}
\abx@aux@category{cited}{berman1979nonnegative}
\citation{Lim20051}
\abx@aux@category{cited}{Lim20051}
\citation{varga2000matrix}
\abx@aux@category{cited}{varga2000matrix}
\citation{chang2011primitivity}
\abx@aux@category{cited}{chang2011primitivity}
\citation{pearson2010essentially}
\abx@aux@category{cited}{pearson2010essentially}
\citation{HuHuang2013}
\abx@aux@category{cited}{HuHuang2013}
\citation{HuHuang2013}
\abx@aux@category{cited}{HuHuang2013}
\citation{HuHuang2013}
\abx@aux@category{cited}{HuHuang2013}
\citation{YangYang2011}
\abx@aux@category{cited}{YangYang2011}
\citation{gaubert2004perron}
\abx@aux@category{cited}{gaubert2004perron}
\citation{Friedland2012}
\abx@aux@category{cited}{Friedland2012}
\citation{HuHuang2013}
\abx@aux@category{cited}{HuHuang2013}
\citation{HuHuang2013}
\abx@aux@category{cited}{HuHuang2013}
\citation{YangYang2011}
\abx@aux@category{cited}{YangYang2011}
\citation{Chang2008}
\abx@aux@category{cited}{Chang2008}
\citation{chang2011primitivity}
\abx@aux@category{cited}{chang2011primitivity}
\citation{ZhangQi}
\abx@aux@category{cited}{ZhangQi}
\citation{HuHuang2013}
\abx@aux@category{cited}{HuHuang2013}
\citation{HuHuang2013}
\abx@aux@category{cited}{HuHuang2013}
\citation{YangYang2010}
\abx@aux@category{cited}{YangYang2010}
\citation{wen2014theperturbation}
\abx@aux@category{cited}{wen2014theperturbation}
\citation{Chang2008}
\abx@aux@category{cited}{Chang2008}
\citation{YangYang2011}
\abx@aux@category{cited}{YangYang2011}
\citation{YangYang2011}
\abx@aux@category{cited}{YangYang2011}
\citation{HuHuang2013}
\abx@aux@category{cited}{HuHuang2013}
\citation{HuHuang2013}
\abx@aux@category{cited}{HuHuang2013}
\citation{HuHuang2013}
\abx@aux@category{cited}{HuHuang2013}
\citation{HuHuang2013}
\abx@aux@category{cited}{HuHuang2013}
\citation{HuHuang2013}
\abx@aux@category{cited}{HuHuang2013}
\citation{Friedland2012}
\abx@aux@category{cited}{Friedland2012}
\citation{berman1979nonnegative}
\abx@aux@category{cited}{berman1979nonnegative}
\citation{chang2011primitivity}
\abx@aux@category{cited}{chang2011primitivity}
\citation{ZhangQi}
\abx@aux@category{cited}{ZhangQi}
\citation{HuHuang2013}
\abx@aux@category{cited}{HuHuang2013}
\citation{varga2000matrix}
\abx@aux@category{cited}{varga2000matrix}
\citation{Qi2005}
\abx@aux@category{cited}{Qi2005}
\citation{chang2011primitivity}
\abx@aux@category{cited}{chang2011primitivity}
\citation{ZhangQi}
\abx@aux@category{cited}{ZhangQi}
\citation{HuHuang2013}
\abx@aux@category{cited}{HuHuang2013}
\citation{HuHuang2013}
\abx@aux@category{cited}{HuHuang2013}
\citation{ChenQi2013}
\abx@aux@category{cited}{ChenQi2013}
\@input{references.aux}
\abx@aux@number{83}{abraham2012manifolds}{0}{1}
\abx@aux@number{84}{Kolda2009}{0}{2}
\abx@aux@number{85}{ChangQi2013}{0}{3}
\abx@aux@number{86}{chatelin2012eigenvalues}{0}{4}
\abx@aux@number{87}{Qi2005}{0}{5}
\abx@aux@number{88}{Lim20051}{0}{6}
\abx@aux@number{89}{Person2012}{0}{7}
\abx@aux@number{90}{HuQi2012}{0}{8}
\abx@aux@number{91}{Lim2008}{0}{9}
\abx@aux@number{92}{NgQi2009}{0}{10}
\abx@aux@number{93}{De2000}{0}{11}
\abx@aux@number{94}{Uschmajew2012}{0}{12}
\abx@aux@number{95}{barmpoutis2007symmetric}{0}{13}
\abx@aux@number{96}{Chang2008}{0}{14}
\abx@aux@number{97}{YangYang2010}{0}{15}
\abx@aux@number{98}{YangYang2011}{0}{16}
\abx@aux@number{99}{ChangQi2010}{0}{17}
\abx@aux@number{100}{YangYang2011a}{0}{18}
\abx@aux@number{101}{bulo2009new}{0}{19}
\abx@aux@number{102}{ng2009finding}{0}{20}
\abx@aux@number{103}{pearson2010essentially}{0}{21}
\abx@aux@number{104}{liu2010always}{0}{22}
\abx@aux@number{105}{chang2011primitivity}{0}{23}
\abx@aux@number{106}{Friedland2012}{0}{24}
\abx@aux@number{107}{gaubert2004perron}{0}{25}
\abx@aux@number{108}{ZhangQi}{0}{26}
\abx@aux@number{109}{zhou2013efficient}{0}{27}
\abx@aux@number{110}{HuHuang2013}{0}{28}
\abx@aux@number{111}{ChenQi2013}{0}{29}
\abx@aux@number{112}{berman1979nonnegative}{0}{30}
\abx@aux@number{113}{varga2000matrix}{0}{31}
\abx@aux@number{114}{wen2014theperturbation}{0}{32}
\@input{acknowledgements.aux}
\@input{appendices.aux}
\@input{resume.aux}
