\relax 
\@writefile{toc}{\defcounter {refsection}{0}\relax }\@writefile{toc}{\contentsline {chapter}{\numberline {Chapter 1}Introduction}{1}{chapter.1}}
\@writefile{lof}{\defcounter {refsection}{0}\relax }\@writefile{lof}{\addvspace {10\p@ }}
\@writefile{lot}{\defcounter {refsection}{0}\relax }\@writefile{lot}{\addvspace {10\p@ }}
\@writefile{toc}{\defcounter {refsection}{0}\relax }\@writefile{toc}{\contentsline {section}{\numberline {1.1}Tensor and its eigenvalues}{1}{section.1.1}}
\newlabel{sec:tensor_and_its_eigenvalues}{{1.1}{1}{Tensor and its eigenvalues\relax }{section.1.1}{}}
\@writefile{toc}{\defcounter {refsection}{0}\relax }\@writefile{toc}{\contentsline {section}{\numberline {1.2}A Brief summary of tensor eigenvalues theory}{2}{section.1.2}}
\@writefile{toc}{\defcounter {refsection}{0}\relax }\@writefile{toc}{\contentsline {section}{\numberline {1.3}Contribution}{3}{section.1.3}}
\newlabel{sec:contribution}{{1.3}{3}{Contribution\relax }{section.1.3}{}}
\@writefile{toc}{\defcounter {refsection}{0}\relax }\@writefile{toc}{\contentsline {section}{\numberline {1.4}Outline of this thesis}{4}{section.1.4}}
\@writefile{toc}{\defcounter {refsection}{0}\relax }\@writefile{toc}{\contentsline {section}{\numberline {1.5}Notation}{5}{section.1.5}}
\@writefile{toc}{\defcounter {refsection}{0}\relax }\@writefile{toc}{\contentsline {chapter}{\numberline {Chapter 2}$H$-eigenvalues of a nonnegative tensor}{6}{chapter.2}}
\@writefile{lof}{\defcounter {refsection}{0}\relax }\@writefile{lof}{\addvspace {10\p@ }}
\@writefile{lot}{\defcounter {refsection}{0}\relax }\@writefile{lot}{\addvspace {10\p@ }}
\@writefile{toc}{\defcounter {refsection}{0}\relax }\@writefile{toc}{\contentsline {section}{\numberline {2.1}Definition}{6}{section.2.1}}
\newlabel{def:primitive}{{2.5}{7}{Definition\relax }{theorem.2.5}{}}
\newlabel{def:essentially_positive}{{2.6}{7}{Definition\relax }{theorem.2.6}{}}
\newlabel{def: weakly_positive}{{2.7}{7}{Definition\relax }{theorem.2.7}{}}
\newlabel{def: weakly_reducible_graph}{{2.8}{7}{Definition\relax }{theorem.2.8}{}}
\newlabel{def: weakly_reducible_algebra}{{2.9}{8}{Definition\relax }{theorem.2.9}{}}
\@writefile{lof}{\defcounter {refsection}{0}\relax }\@writefile{lof}{\contentsline {figure}{\numberline {2.1}{\ignorespaces Relationships of the seven classes of nonnegative tensors.\cite {HuHuang2013}}}{8}{figure.2.1}}
\newlabel{fig:classification}{{2.1}{8}{Definition\relax }{figure.2.1}{}}
\@writefile{toc}{\defcounter {refsection}{0}\relax }\@writefile{toc}{\contentsline {section}{\numberline {2.2}Properties and algorithms}{9}{section.2.2}}
\@writefile{loa}{\defcounter {refsection}{0}\relax }\@writefile{loa}{\contentsline {algorithm}{\numberline {1}{\ignorespaces $NQZ$ Algorithm}}{9}{algorithm.1}}
\newlabel{them: linear_convergence}{{2.14}{10}{Properties and algorithms\relax }{theorem.2.14}{}}
\@writefile{toc}{\defcounter {refsection}{0}\relax }\@writefile{toc}{\contentsline {chapter}{\numberline {Chapter 3}A necessary and sufficient condition on the existence of positive eigenvectors}{11}{chapter.3}}
\@writefile{lof}{\defcounter {refsection}{0}\relax }\@writefile{lof}{\addvspace {10\p@ }}
\@writefile{lot}{\defcounter {refsection}{0}\relax }\@writefile{lot}{\addvspace {10\p@ }}
\newlabel{cha: necessary_and_sufficient_condition}{{3}{11}{A necessary and sufficient condition on the existence of positive eigenvectors\relax }{chapter.3}{}}
\@writefile{toc}{\defcounter {refsection}{0}\relax }\@writefile{toc}{\contentsline {section}{\numberline {3.1}Motivation}{11}{section.3.1}}
\newlabel{them: perturbation}{{3.2}{11}{Motivation\relax }{theorem.3.2}{}}
\@writefile{toc}{\defcounter {refsection}{0}\relax }\@writefile{toc}{\contentsline {section}{\numberline {3.2}Definition of basic block and final block}{13}{section.3.2}}
\@writefile{toc}{\defcounter {refsection}{0}\relax }\@writefile{toc}{\contentsline {section}{\numberline {3.3}A necessary and sufficient condition based on partition}{14}{section.3.3}}
\newlabel{them: main_theorem}{{3.8}{14}{A necessary and sufficient condition based on partition\relax }{theorem.3.8}{}}
\@writefile{lof}{\defcounter {refsection}{0}\relax }\@writefile{lof}{\contentsline {figure}{\numberline {3.1}{\ignorespaces graph of $G(\textbf  {\ensuremath  {\mathcal  {A}}})$}}{16}{figure.3.1}}
\@writefile{toc}{\defcounter {refsection}{0}\relax }\@writefile{toc}{\contentsline {chapter}{\numberline {Chapter 4}The weakest condition on the convergence of $NQZ$ algorithm}{20}{chapter.4}}
\@writefile{lof}{\defcounter {refsection}{0}\relax }\@writefile{lof}{\addvspace {10\p@ }}
\@writefile{lot}{\defcounter {refsection}{0}\relax }\@writefile{lot}{\addvspace {10\p@ }}
\newlabel{cha: the_weakest condition on the convergence}{{4}{20}{The weakest condition on the convergence of $NQZ$ algorithm\relax }{chapter.4}{}}
\@writefile{toc}{\defcounter {refsection}{0}\relax }\@writefile{toc}{\contentsline {section}{\numberline {4.1}The weakest condition on the convergence of $NQZ$ algorithm}{20}{section.4.1}}
\@writefile{lof}{\defcounter {refsection}{0}\relax }\@writefile{lof}{\contentsline {figure}{\numberline {4.1}{\ignorespaces Weakly reducible convergent case}}{22}{figure.4.1}}
\newlabel{fig:Weakly reducible convergent case}{{4.1}{22}{The weakest condition on the convergence of $NQZ$ algorithm\relax }{figure.4.1}{}}
\@writefile{toc}{\defcounter {refsection}{0}\relax }\@writefile{toc}{\contentsline {section}{\numberline {4.2}convergence of our algorithm}{22}{section.4.2}}
\newlabel{them: NQZconv}{{4.4}{22}{convergence of our algorithm\relax }{theorem.4.4}{}}
\@writefile{lof}{\defcounter {refsection}{0}\relax }\@writefile{lof}{\contentsline {figure}{\numberline {4.2}{\ignorespaces Weakly reducible diverse case}}{23}{figure.4.2}}
\newlabel{fig:Weakly reducible diverse case}{{4.2}{23}{convergence of our algorithm\relax }{figure.4.2}{}}
\@writefile{toc}{\defcounter {refsection}{0}\relax }\@writefile{toc}{\contentsline {section}{\numberline {4.3}complexity of our algorithm under the perbutation}{23}{section.4.3}}
\@writefile{loa}{\defcounter {refsection}{0}\relax }\@writefile{loa}{\contentsline {algorithm}{\numberline {2}{\ignorespaces $NQZ$ Algorithm}}{24}{algorithm.2}}
\newlabel{alg: NQZ}{{2}{24}{complexity of our algorithm under the perbutation\relax }{algorithm.2}{}}
\@writefile{loa}{\defcounter {refsection}{0}\relax }\@writefile{loa}{\contentsline {algorithm}{\numberline {3}{\ignorespaces $NQZ$ Algorithm}}{26}{algorithm.3}}
\newlabel{alg: weakest_NQZ}{{3}{26}{complexity of our algorithm under the perbutation\relax }{algorithm.3}{}}
\@writefile{toc}{\defcounter {refsection}{0}\relax }\@writefile{toc}{\contentsline {subsection}{\numberline {4.3.1}Numerical experiment}{26}{subsection.4.3.1}}
\newlabel{sub:numerical_experiment}{{4.3.1}{26}{Numerical experiment\relax }{subsection.4.3.1}{}}
\@writefile{lof}{\defcounter {refsection}{0}\relax }\@writefile{lof}{\contentsline {figure}{\numberline {4.3}{\ignorespaces convergence}}{27}{figure.4.3}}
\newlabel{fig: NQZ convergence}{{4.3}{27}{Numerical experiment\relax }{figure.4.3}{}}
\@writefile{lof}{\defcounter {refsection}{0}\relax }\@writefile{lof}{\contentsline {figure}{\numberline {4.4}{\ignorespaces caption}}{27}{figure.4.4}}
\newlabel{fig:exa}{{4.4}{27}{Numerical experiment\relax }{figure.4.4}{}}
\@writefile{lof}{\defcounter {refsection}{0}\relax }\@writefile{lof}{\contentsline {figure}{\numberline {4.5}{\ignorespaces caption}}{28}{figure.4.5}}
\newlabel{fig:label}{{4.5}{28}{Numerical experiment\relax }{figure.4.5}{}}
\@writefile{toc}{\defcounter {refsection}{0}\relax }\@writefile{toc}{\contentsline {chapter}{\numberline {Chapter 5}A improved algorithm for spectral radius based on partition}{29}{chapter.5}}
\@writefile{lof}{\defcounter {refsection}{0}\relax }\@writefile{lof}{\addvspace {10\p@ }}
\@writefile{lot}{\defcounter {refsection}{0}\relax }\@writefile{lot}{\addvspace {10\p@ }}
\@writefile{toc}{\defcounter {refsection}{0}\relax }\@writefile{toc}{\contentsline {section}{\numberline {5.1}Motivation and algorithm}{29}{section.5.1}}
\@writefile{loa}{\defcounter {refsection}{0}\relax }\@writefile{loa}{\contentsline {algorithm}{\numberline {4}{\ignorespaces $NQZ$ Algorithm}}{29}{algorithm.4}}
\newlabel{alg: NQZ_improved}{{4}{29}{Motivation and algorithm\relax }{algorithm.4}{}}
\@writefile{toc}{\defcounter {refsection}{0}\relax }\@writefile{toc}{\contentsline {section}{\numberline {5.2}Complexity of this algorithm under perturbation}{30}{section.5.2}}
\@writefile{toc}{\defcounter {refsection}{0}\relax }\@writefile{toc}{\contentsline {section}{\numberline {5.3}numerical experiment}{30}{section.5.3}}
\newlabel{example:2}{{5.1}{31}{numerical experiment\relax }{theorem.5.1}{}}
\@writefile{lof}{\defcounter {refsection}{0}\relax }\@writefile{lof}{\contentsline {figure}{\numberline {5.1}{\ignorespaces convergence}}{32}{figure.5.1}}
\newlabel{fig: NQZ convergence 2}{{5.1}{32}{numerical experiment\relax }{figure.5.1}{}}
\@writefile{lof}{\defcounter {refsection}{0}\relax }\@writefile{lof}{\contentsline {figure}{\numberline {5.2}{\ignorespaces caption}}{32}{figure.5.2}}
\newlabel{fig:example2}{{5.2}{32}{numerical experiment\relax }{figure.5.2}{}}
\@writefile{lof}{\defcounter {refsection}{0}\relax }\@writefile{lof}{\contentsline {figure}{\numberline {5.3}{\ignorespaces caption}}{33}{figure.5.3}}
\newlabel{fig:example}{{5.3}{33}{numerical experiment\relax }{figure.5.3}{}}
\@writefile{toc}{\defcounter {refsection}{0}\relax }\@writefile{toc}{\contentsline {chapter}{\numberline {Chapter 6}conclusion and remark}{35}{chapter.6}}
\@writefile{lof}{\defcounter {refsection}{0}\relax }\@writefile{lof}{\addvspace {10\p@ }}
\@writefile{lot}{\defcounter {refsection}{0}\relax }\@writefile{lot}{\addvspace {10\p@ }}
\newlabel{cha:conclusion_and_remark}{{6}{35}{conclusion and remark\relax }{chapter.6}{}}
\@setckpt{manual}{
\setcounter{page}{36}
\setcounter{equation}{0}
\setcounter{enumi}{2}
\setcounter{enumii}{0}
\setcounter{enumiii}{0}
\setcounter{enumiv}{0}
\setcounter{footnote}{0}
\setcounter{mpfootnote}{0}
\setcounter{part}{0}
\setcounter{chapter}{6}
\setcounter{section}{0}
\setcounter{subsection}{0}
\setcounter{subsubsection}{0}
\setcounter{paragraph}{0}
\setcounter{subparagraph}{0}
\setcounter{figure}{0}
\setcounter{table}{0}
\setcounter{Item}{2}
\setcounter{Hfootnote}{0}
\setcounter{Hy@AnnotLevel}{0}
\setcounter{bookmark@seq@number}{25}
\setcounter{fontspec_tmp_int}{0}
\setcounter{listtotal}{0}
\setcounter{listcount}{0}
\setcounter{liststart}{0}
\setcounter{liststop}{0}
\setcounter{citecount}{0}
\setcounter{citetotal}{0}
\setcounter{multicitecount}{0}
\setcounter{multicitetotal}{0}
\setcounter{instcount}{83}
\setcounter{maxnames}{3}
\setcounter{minnames}{1}
\setcounter{maxitems}{3}
\setcounter{minitems}{1}
\setcounter{citecounter}{0}
\setcounter{savedcitecounter}{0}
\setcounter{uniquelist}{0}
\setcounter{uniquename}{0}
\setcounter{refsection}{0}
\setcounter{refsegment}{0}
\setcounter{maxextrayear}{0}
\setcounter{maxextraalpha}{0}
\setcounter{abbrvpenalty}{50}
\setcounter{highnamepenalty}{50}
\setcounter{lownamepenalty}{25}
\setcounter{maxparens}{3}
\setcounter{parenlevel}{0}
\setcounter{mincomprange}{10}
\setcounter{maxcomprange}{100000}
\setcounter{mincompwidth}{1}
\setcounter{labelname}{0}
\setcounter{savedlabelname}{0}
\setcounter{author}{0}
\setcounter{savedauthor}{0}
\setcounter{shortauthor}{0}
\setcounter{savedshortauthor}{0}
\setcounter{editor}{0}
\setcounter{savededitor}{0}
\setcounter{editora}{0}
\setcounter{savededitora}{0}
\setcounter{editorb}{0}
\setcounter{savededitorb}{0}
\setcounter{editorc}{0}
\setcounter{savededitorc}{0}
\setcounter{shorteditor}{0}
\setcounter{savedshorteditor}{0}
\setcounter{bookauthor}{0}
\setcounter{savedbookauthor}{0}
\setcounter{translator}{0}
\setcounter{savedtranslator}{0}
\setcounter{annotator}{0}
\setcounter{savedannotator}{0}
\setcounter{commentator}{0}
\setcounter{savedcommentator}{0}
\setcounter{introduction}{0}
\setcounter{savedintroduction}{0}
\setcounter{foreword}{0}
\setcounter{savedforeword}{0}
\setcounter{afterword}{0}
\setcounter{savedafterword}{0}
\setcounter{holder}{0}
\setcounter{savedholder}{0}
\setcounter{namea}{0}
\setcounter{savednamea}{0}
\setcounter{nameb}{0}
\setcounter{savednameb}{0}
\setcounter{namec}{0}
\setcounter{savednamec}{0}
\setcounter{institution}{0}
\setcounter{savedinstitution}{0}
\setcounter{language}{0}
\setcounter{savedlanguage}{0}
\setcounter{location}{0}
\setcounter{savedlocation}{0}
\setcounter{organization}{0}
\setcounter{savedorganization}{0}
\setcounter{origlocation}{0}
\setcounter{savedoriglocation}{0}
\setcounter{origpublisher}{0}
\setcounter{savedorigpublisher}{0}
\setcounter{pageref}{0}
\setcounter{savedpageref}{0}
\setcounter{publisher}{0}
\setcounter{savedpublisher}{0}
\setcounter{lista}{0}
\setcounter{savedlista}{0}
\setcounter{listb}{0}
\setcounter{savedlistb}{0}
\setcounter{listc}{0}
\setcounter{savedlistc}{0}
\setcounter{listd}{0}
\setcounter{savedlistd}{0}
\setcounter{liste}{0}
\setcounter{savedliste}{0}
\setcounter{listf}{0}
\setcounter{savedlistf}{0}
\setcounter{biburlnumpenalty}{0}
\setcounter{biburlucpenalty}{0}
\setcounter{biburllcpenalty}{0}
\setcounter{smartand}{1}
\setcounter{cbx@tempcnta}{0}
\setcounter{cbx@tempcntb}{29}
\setcounter{parentequation}{0}
\setcounter{ALC@unique}{12}
\setcounter{ALC@line}{2}
\setcounter{ALC@rem}{0}
\setcounter{ALC@depth}{0}
\setcounter{float@type}{8}
\setcounter{algorithm}{4}
\setcounter{theorem}{0}
\setcounter{section@level}{1}
}
